24
43/home/ahmed/Documents/meteo_city/index.html1644518960458976636 0
45/home/ahmed/Documents/meteo_city/package.json1644518960462976625 0
55/home/ahmed/Documents/meteo_city/dist/index.c36f364e.js1644518960458976636 0
60/home/ahmed/Documents/meteo_city/dist/index.3a01df49.css.map1644518960458976636 0
55/home/ahmed/Documents/meteo_city/dist/index.3d214d75.js1644518960458976636 0
36/home/ahmed/Documents/meteo_city/img1644518960458976636 1
48/home/ahmed/Documents/meteo_city/dist/index.html1644518960458976636 0
32/home/ahmed/Documents/meteo_city1644518960462976625 1
43/home/ahmed/Documents/meteo_city/.gitignore1644518960230977346 0
54/home/ahmed/Documents/meteo_city/dist/bg.38a7bc78.jpeg1644518960458976636 0
50/home/ahmed/Documents/meteo_city/package-lock.json1644518960462976625 0
56/home/ahmed/Documents/meteo_city/dist/index.3a01df49.css1644518960458976636 0
42/home/ahmed/Documents/meteo_city/README.md1644518960454976649 0
45/home/ahmed/Documents/meteo_city/img/bg1.jpeg1644518960458976636 0
59/home/ahmed/Documents/meteo_city/dist/bg.jpeg.6f5e1f68.jpeg1644518960458976636 0
42/home/ahmed/Documents/meteo_city/style.css1644518960462976625 0
37/home/ahmed/Documents/meteo_city/dist1644518960458976636 1
55/home/ahmed/Documents/meteo_city/dist/bg1.3211c44b.jpeg1644518960458976636 0
56/home/ahmed/Documents/meteo_city/dist/index.8353e49f.css1644518960458976636 0
59/home/ahmed/Documents/meteo_city/dist/index.c36f364e.js.map1644518960458976636 0
60/home/ahmed/Documents/meteo_city/dist/index.8353e49f.css.map1644518960458976636 0
59/home/ahmed/Documents/meteo_city/dist/index.3d214d75.js.map1644518960458976636 0
41/home/ahmed/Documents/meteo_city/index.js1644518960458976636 0
55/home/ahmed/Documents/meteo_city/dist/img.6be5f13f.jpeg1644518960458976636 0
